<?xml version="1.0" encoding="iso-8859-1"?>
<svg version="1.1" id="Capa_1" xmlns="http://www.w3.org/2000/svg" xmlns:xlink="http://www.w3.org/1999/xlink" x="0px" y="0px"
     viewBox="0 0 265.644 265.644" style="enable-background:new 0 0 265.644 265.644;" xml:space="preserve">
<g>
    <g>
        <g>
            <path style="fill:#010002;" d="M252.933,265.641H12.711C5.689,265.641,0,259.947,0,252.93V12.714
                C0,5.692,5.689,0.003,12.711,0.003h240.222c7.022,0,12.711,5.695,12.711,12.711V252.93
                C265.644,259.946,259.955,265.641,252.933,265.641z M25.422,240.219h214.8V25.425h-214.8V240.219z"/>
        </g>
        <g>
            <path style="fill:#010002;" d="M201.523,77.357h-94.776c-4.678,0-8.474-3.791-8.474-8.474s3.796-8.474,8.474-8.474h94.776
                c4.683,0,8.479,3.791,8.479,8.474S206.206,77.357,201.523,77.357z"/>
        </g>
        <g>
            <path style="fill:#010002;" d="M201.523,145.155h-94.776c-4.678,0-8.474-3.791-8.474-8.474c0-4.683,3.796-8.474,8.474-8.474
                h94.776c4.683,0,8.479,3.791,8.479,8.474C210.002,141.364,206.206,145.155,201.523,145.155z"/>
        </g>
        <g>
            <path style="fill:#010002;" d="M201.523,212.948h-94.776c-4.678,0-8.474-3.791-8.474-8.474c0-4.683,3.796-8.474,8.474-8.474
                h94.776c4.683,0,8.479,3.791,8.479,8.474C210.002,209.156,206.206,212.948,201.523,212.948z"/>
        </g>
        <g>
            <rect x="41.506" y="51.309" style="fill:#010002;" width="35.136" height="35.142"/>
        </g>
        <g>
            <rect x="41.506" y="119.107" style="fill:#010002;" width="35.136" height="35.142"/>
        </g>
        <g>
            <rect x="41.506" y="186.905" style="fill:#010002;" width="35.136" height="35.136"/>
        </g>
    </g>
</g>
<g>
</g>
<g>
</g>
<g>
</g>
<g>
</g>
<g>
</g>
<g>
</g>
<g>
</g>
<g>
</g>
<g>
</g>
<g>
</g>
<g>
</g>
<g>
</g>
<g>
</g>
<g>
</g>
<g>
</g>
</svg>