<?xml version="1.0" encoding="UTF-8"?>
<CustomTab xmlns="http://soap.sforce.com/2006/04/metadata">
    <description>Custom page for the ProjectForce workspace.</description>
    <label>ProjectForce Workspace</label>
    <mobileReady>false</mobileReady>
    <motif>Custom69: Guitar</motif>
    <page>PF_Homepage</page>
</CustomTab>
